236VIPAES Dummy 236 VIPAES 170 Q236VIPAESW 1
210VIPAPS Dummy 210 VIPAPS 130 Q210VIPAPSW 1
204VIPAES Dummy 204 VIPAES 170 Q204VIPAESW 1
235VAPAES Dummy 235 VAPAES 150 Q235VAPAESC 2
201VIPIES Dummy 201 VIPIES 180 Q201VIPIESW 1
204VIPIPS Dummy 204 VIPIPS 140 Q204VIPIPSW 1
222VAPAPS Dummy 222 VAPAPS 110 Q222VAPAPSC 2
219VAPAPS Dummy 219 VAPAPS 110 Q219VAPAPSW 1
210VIPAES Dummy 210 VIPAES 170 Q210VIPAESC 2
234VAPAES Dummy 234 VAPAES 150 Q234VAPAESW 1
203VIPIPS Dummy 203 VIPIPS 140 Q203VIPIPSC 2
228VAPAPS Dummy 228 VAPAPS 110 Q228VAPAPSC 2
235VAPIPS Dummy 235 VAPIPS 120 Q235VAPIPSC 2
208VIPAES Dummy 208 VIPAES 170 Q208VIPAESW 1
203VAPIES Dummy 203 VAPIES 160 Q203VAPIESC 2
213VIPIES Dummy 213 VIPIES 180 Q213VIPIESW 1
232VIPIPS Dummy 232 VIPIPS 140 Q232VIPIPSW 1
222VIPAES Dummy 222 VIPAES 170 Q222VIPAESC 2
220VAPAPS Dummy 220 VAPAPS 110 Q220VAPAPSC 2
226VAPAPS Dummy 226 VAPAPS 110 Q226VAPAPSC 2
217VAPIPS Dummy 217 VAPIPS 120 Q217VAPIPSW 1
225VIPIES Dummy 225 VIPIES 180 Q225VIPIESW 1
233VAPIES Dummy 233 VAPIES 160 Q233VAPIESC 2
227VAPAPS Dummy 227 VAPAPS 110 Q227VAPAPSW 1
203VAPAES Dummy 203 VAPAES 150 Q203VAPAESW 1
229VIPIES Dummy 229 VIPIES 180 Q229VIPIESC 2
202VIPAES Dummy 202 VIPAES 170 Q202VIPAESC 2
201VAPIPS Dummy 201 VAPIPS 120 Q201VAPIPSW 1
210VIPIPS Dummy 210 VIPIPS 140 Q210VIPIPSW 1
236VAPIES Dummy 236 VAPIES 160 Q236VAPIESW 1
201VAPIES Dummy 201 VAPIES 160 Q201VAPIESC 2
228VIPAES Dummy 228 VIPAES 170 Q228VIPAESW 1
206VAPIPS Dummy 206 VAPIPS 120 Q206VAPIPSC 2
209VAPIES Dummy 209 VAPIES 160 Q209VAPIESC 2
236VAPIPS Dummy 236 VAPIPS 120 Q236VAPIPSC 2
202VIPAPS Dummy 202 VIPAPS 130 Q202VIPAPSW 1
230VAPIES Dummy 230 VAPIES 160 Q230VAPIESW 1
213VAPIES Dummy 213 VAPIES 160 Q213VAPIESW 1
216VAPAES Dummy 216 VAPAES 150 Q216VAPAESC 2
214VIPAPS Dummy 214 VIPAPS 130 Q214VIPAPSW 1
221VAPAES Dummy 221 VAPAES 150 Q221VAPAESC 2
219VAPIPS Dummy 219 VAPIPS 120 Q219VAPIPSC 2
215VAPAES Dummy 215 VAPAES 150 Q215VAPAESW 1
205VIPIES Dummy 205 VIPIES 180 Q205VIPIESC 2
201VIPAPS Dummy 201 VIPAPS 130 Q201VIPAPSC 2
204VAPAES Dummy 204 VAPAES 150 Q204VAPAESC 2
206VIPAES Dummy 206 VIPAES 170 Q206VIPAESW 1
221VAPIES Dummy 221 VAPIES 160 Q221VAPIESW 1
213VIPIPS Dummy 213 VIPIPS 140 Q213VIPIPSC 2
222VAPAES Dummy 222 VAPAES 150 Q222VAPAESW 1
216VAPIPS Dummy 216 VAPIPS 120 Q216VAPIPSC 2
214VIPIPS Dummy 214 VIPIPS 140 Q214VIPIPSC 2
236VIPAPS Dummy 236 VIPAPS 130 Q236VIPAPSW 1
229VAPAES Dummy 229 VAPAES 150 Q229VAPAESW 1
233VAPAES Dummy 233 VAPAES 150 Q233VAPAESC 2
231VAPAPS Dummy 231 VAPAPS 110 Q231VAPAPSW 1
215VAPIPS Dummy 215 VAPIPS 120 Q215VAPIPSC 2
228VIPIPS Dummy 228 VIPIPS 140 Q228VIPIPSW 1
219VAPIES Dummy 219 VAPIES 160 Q219VAPIESC 2
231VIPIPS Dummy 231 VIPIPS 140 Q231VIPIPSC 2
225VIPAPS Dummy 225 VIPAPS 130 Q225VIPAPSC 2
235VIPIES Dummy 235 VIPIES 180 Q235VIPIESW 1
234VIPAES Dummy 234 VIPAES 170 Q234VIPAESC 2
205VAPIPS Dummy 205 VAPIPS 120 Q205VAPIPSC 2
209VIPAPS Dummy 209 VIPAPS 130 Q209VIPAPSC 2
207VAPIPS Dummy 207 VAPIPS 120 Q207VAPIPSW 1
211VIPIES Dummy 211 VIPIES 180 Q211VIPIESW 1
215VAPIES Dummy 215 VAPIES 160 Q215VAPIESW 1
218VAPAPS Dummy 218 VAPAPS 110 Q218VAPAPSC 2
230VAPAPS Dummy 230 VAPAPS 110 Q230VAPAPSC 2
217VAPAPS Dummy 217 VAPAPS 110 Q217VAPAPSW 1
232VIPAES Dummy 232 VIPAES 170 Q232VIPAESW 1
214VIPIES Dummy 214 VIPIES 180 Q214VIPIESW 1
211VIPIPS Dummy 211 VIPIPS 140 Q211VIPIPSC 2
212VIPIPS Dummy 212 VIPIPS 140 Q212VIPIPSW 1
232VAPAPS Dummy 232 VAPAPS 110 Q232VAPAPSC 2
214VIPAES Dummy 214 VIPAES 170 Q214VIPAESC 2
205VAPAES Dummy 205 VAPAES 150 Q205VAPAESW 1
225VAPIES Dummy 225 VAPIES 160 Q225VAPIESC 2
204VAPIPS Dummy 204 VAPIPS 120 Q204VAPIPSW 1
206VAPIES Dummy 206 VAPIES 160 Q206VAPIESW 1
226VIPAES Dummy 226 VIPAES 170 Q226VIPAESC 2
203VAPIPS Dummy 203 VAPIPS 120 Q203VAPIPSW 1
212VIPAPS Dummy 212 VIPAPS 130 Q212VIPAPSW 1
208VAPIPS Dummy 208 VAPIPS 120 Q208VAPIPSW 1
227VAPIES Dummy 227 VAPIES 160 Q227VAPIESC 2
209VAPAES Dummy 209 VAPAES 150 Q209VAPAESC 2
213VIPAPS Dummy 213 VIPAPS 130 Q213VIPAPSC 2
223VAPAPS Dummy 223 VAPAPS 110 Q223VAPAPSW 1
212VAPIES Dummy 212 VAPIES 160 Q212VAPIESC 2
233VIPAPS Dummy 233 VIPAPS 130 Q233VIPAPSC 2
223VIPIES Dummy 223 VIPIES 180 Q223VIPIESW 1
220VAPIPS Dummy 220 VAPIPS 120 Q220VAPIPSC 2
207VIPIPS Dummy 207 VIPIPS 140 Q207VIPIPSW 1
235VIPAPS Dummy 235 VIPAPS 130 Q235VIPAPSC 2
224VAPIES Dummy 224 VAPIES 160 Q224VAPIESW 1
229VAPAPS Dummy 229 VAPAPS 110 Q229VAPAPSW 1
220VIPAES Dummy 220 VIPAES 170 Q220VIPAESW 1
221VIPAPS Dummy 221 VIPAPS 130 Q221VIPAPSC 2
232VIPIES Dummy 232 VIPIES 180 Q232VIPIESC 2
231VIPIES Dummy 231 VIPIES 180 Q231VIPIESC 2
217VAPAES Dummy 217 VAPAES 150 Q217VAPAESW 1
234VAPIPS Dummy 234 VAPIPS 120 Q234VAPIPSW 1
222VIPAPS Dummy 222 VIPAPS 130 Q222VIPAPSW 1
206VIPIPS Dummy 206 VIPIPS 140 Q206VIPIPSC 2
228VAPAES Dummy 228 VAPAES 150 Q228VAPAESC 2
215VAPAPS Dummy 215 VAPAPS 110 Q215VAPAPSW 1
211VIPAPS Dummy 211 VIPAPS 130 Q211VIPAPSW 1
224VAPAPS Dummy 224 VAPAPS 110 Q224VAPAPSC 2
207VIPIES Dummy 207 VIPIES 180 Q207VIPIESC 2
208VIPIES Dummy 208 VIPIES 180 Q208VIPIESC 2
227VAPAES Dummy 227 VAPAES 150 Q227VAPAESW 1
209VIPIPS Dummy 209 VIPIPS 140 Q209VIPIPSW 1
216VAPAPS Dummy 216 VAPAPS 110 Q216VAPAPSC 2
202VIPIES Dummy 202 VIPIES 180 Q202VIPIESW 1
224VIPAPS Dummy 224 VIPAPS 130 Q224VIPAPSC 2
225VAPAPS Dummy 225 VAPAPS 110 Q225VAPAPSW 1
227VIPIPS Dummy 227 VIPIPS 140 Q227VIPIPSW 1
220VIPIES Dummy 220 VIPIES 180 Q220VIPIESC 2
224VIPAES Dummy 224 VIPAES 170 Q224VIPAESC 2
231VAPIES Dummy 231 VAPIES 160 Q231VAPIESW 1
218VAPIPS Dummy 218 VAPIPS 120 Q218VAPIPSW 1
219VIPIES Dummy 219 VIPIES 180 Q219VIPIESC 2
226VIPIES Dummy 226 VIPIES 180 Q226VIPIESW 1
216VIPAES Dummy 216 VIPAES 170 Q216VIPAESW 1
221VAPAPS Dummy 221 VAPAPS 110 Q221VAPAPSW 1
211VAPAES Dummy 211 VAPAES 150 Q211VAPAESC 2
226VIPAPS Dummy 226 VIPAPS 130 Q226VIPAPSW 1
207VAPIES Dummy 207 VAPIES 160 Q207VAPIESW 1
223VIPAPS Dummy 223 VIPAPS 130 Q223VIPAPSC 2
205VIPIPS Dummy 205 VIPIPS 140 Q205VIPIPSC 2
217VIPIES Dummy 217 VIPIES 180 Q217VIPIESC 2
208VIPIPS Dummy 208 VIPIPS 140 Q208VIPIPSW 1
202VAPIPS Dummy 202 VAPIPS 120 Q202VAPIPSC 2
223VAPAES Dummy 223 VAPAES 150 Q223VAPAESC 2
218VAPIES Dummy 218 VAPIES 160 Q218VAPIESC 2
234VIPAPS Dummy 234 VIPAPS 130 Q234VIPAPSW 1
212VIPAES Dummy 212 VIPAES 170 Q212VIPAESW 1
233VAPIPS Dummy 233 VAPIPS 120 Q233VAPIPSW 1
230VIPIPS Dummy 230 VIPIPS 140 Q230VIPIPSC 2
210VAPAES Dummy 210 VAPAES 150 Q210VAPAESW 1
218VIPAES Dummy 218 VIPAES 170 Q218VIPAESC 2
230VIPAES Dummy 230 VIPAES 170 Q230VIPAESC 2
229VIPIPS Dummy 229 VIPIPS 140 Q229VIPIPSC 2
