227VAPIES Dummy 227 VAPIES 160 Q227VAPIESC 2
235VAPAPS Dummy 235 VAPAPS 110 Q235VAPAPSW 1
222VAPIPS Dummy 222 VAPIPS 120 Q222VAPIPSW 1
203VIPAPS Dummy 203 VIPAPS 130 Q203VIPAPSC 2
213VAPAES Dummy 213 VAPAES 150 Q213VAPAESC 2
235VIPAPS Dummy 235 VIPAPS 130 Q235VIPAPSC 2
204VIPAPS Dummy 204 VIPAPS 130 Q204VIPAPSW 1
210VIPIES Dummy 210 VIPIES 180 Q210VIPIESW 1
221VIPIES Dummy 221 VIPIES 180 Q221VIPIESC 2
205VAPIES Dummy 205 VAPIES 160 Q205VAPIESW 1
213VIPAPS Dummy 213 VIPAPS 130 Q213VIPAPSC 2
209VAPIES Dummy 209 VAPIES 160 Q209VAPIESC 2
208VIPAES Dummy 208 VIPAES 170 Q208VIPAESW 1
225VIPIES Dummy 225 VIPIES 180 Q225VIPIESW 1
220VIPIPS Dummy 220 VIPIPS 140 Q220VIPIPSW 1
202VIPAES Dummy 202 VIPAES 170 Q202VIPAESC 2
231VAPIPS Dummy 231 VAPIPS 120 Q231VAPIPSW 1
211VAPIPS Dummy 211 VAPIPS 120 Q211VAPIPSW 1
234VAPAPS Dummy 234 VAPAPS 110 Q234VAPAPSC 2
214VAPIES Dummy 214 VAPIES 160 Q214VAPIESW 1
223VIPAPS Dummy 223 VIPAPS 130 Q223VIPAPSC 2
217VIPIPS Dummy 217 VIPIPS 140 Q217VIPIPSW 1
228VIPAPS Dummy 228 VIPAPS 130 Q228VIPAPSW 1
209VIPIES Dummy 209 VIPIES 180 Q209VIPIESC 2
220VAPIPS Dummy 220 VAPIPS 120 Q220VAPIPSC 2
218VIPAES Dummy 218 VIPAES 170 Q218VIPAESC 2
208VAPIES Dummy 208 VAPIES 160 Q208VAPIESW 1
210VIPIPS Dummy 210 VIPIPS 140 Q210VIPIPSW 1
207VAPAES Dummy 207 VAPAES 150 Q207VAPAESC 2
216VIPAPS Dummy 216 VIPAPS 130 Q216VIPAPSW 1
231VIPIES Dummy 231 VIPIES 180 Q231VIPIESC 2
220VIPAES Dummy 220 VIPAES 170 Q220VIPAESW 1
215VIPAPS Dummy 215 VIPAPS 130 Q215VIPAPSC 2
201VAPAPS Dummy 201 VAPAPS 110 Q201VAPAPSW 1
213VAPIPS Dummy 213 VAPIPS 120 Q213VAPIPSW 1
235VAPIES Dummy 235 VAPIES 160 Q235VAPIESW 1
224VIPAPS Dummy 224 VIPAPS 130 Q224VIPAPSC 2
229VAPAPS Dummy 229 VAPAPS 110 Q229VAPAPSW 1
217VAPAES Dummy 217 VAPAES 150 Q217VAPAESC 2
230VAPAES Dummy 230 VAPAES 150 Q230VAPAESW 1
225VIPIPS Dummy 225 VIPIPS 140 Q225VIPIPSC 2
213VIPIES Dummy 213 VIPIES 180 Q213VIPIESW 1
228VIPIES Dummy 228 VIPIES 180 Q228VIPIESC 2
217VAPIES Dummy 217 VAPIES 160 Q217VAPIESC 2
202VAPAPS Dummy 202 VAPAPS 110 Q202VAPAPSC 2
221VAPIES Dummy 221 VAPIES 160 Q221VAPIESW 1
227VIPIES Dummy 227 VIPIES 180 Q227VIPIESW 1
224VIPAES Dummy 224 VIPAES 170 Q224VIPAESC 2
207VAPAPS Dummy 207 VAPAPS 110 Q207VAPAPSW 1
226VIPAPS Dummy 226 VIPAPS 130 Q226VIPAPSW 1
212VIPAES Dummy 212 VIPAES 170 Q212VIPAESW 1
219VIPIES Dummy 219 VIPIES 180 Q219VIPIESC 2
225VIPAPS Dummy 225 VIPAPS 130 Q225VIPAPSC 2
210VAPAPS Dummy 210 VAPAPS 110 Q210VAPAPSC 2
202VIPAPS Dummy 202 VIPAPS 130 Q202VIPAPSW 1
222VIPAES Dummy 222 VIPAES 170 Q222VIPAESC 2
216VIPIES Dummy 216 VIPIES 180 Q216VIPIESC 2
234VIPIES Dummy 234 VIPIES 180 Q234VIPIESW 1
212VAPIPS Dummy 212 VAPIPS 120 Q212VAPIPSC 2
221VAPIPS Dummy 221 VAPIPS 120 Q221VAPIPSW 1
231VAPAES Dummy 231 VAPAES 150 Q231VAPAESC 2
233VIPIES Dummy 233 VIPIES 180 Q233VIPIESC 2
232VAPIES Dummy 232 VAPIES 160 Q232VAPIESW 1
224VIPIPS Dummy 224 VIPIPS 140 Q224VIPIPSW 1
225VAPAES Dummy 225 VAPAES 150 Q225VAPAESW 1
226VIPIPS Dummy 226 VIPIPS 140 Q226VIPIPSC 2
224VAPAES Dummy 224 VAPAES 150 Q224VAPAESC 2
215VIPIES Dummy 215 VIPIES 180 Q215VIPIESW 1
227VIPIPS Dummy 227 VIPIPS 140 Q227VIPIPSC 2
211VAPIES Dummy 211 VAPIES 160 Q211VAPIESC 2
233VAPAPS Dummy 233 VAPAPS 110 Q233VAPAPSW 1
229VAPIES Dummy 229 VAPIES 160 Q229VAPIESW 1
236VAPAPS Dummy 236 VAPAPS 110 Q236VAPAPSC 2
216VIPAES Dummy 216 VIPAES 170 Q216VIPAESW 1
207VIPIES Dummy 207 VIPIES 180 Q207VIPIESC 2
201VAPAES Dummy 201 VAPAES 150 Q201VAPAESW 1
217VAPIPS Dummy 217 VAPIPS 120 Q217VAPIPSW 1
230VIPAES Dummy 230 VIPAES 170 Q230VIPAESC 2
226VIPAES Dummy 226 VIPAES 170 Q226VIPAESC 2
205VIPIPS Dummy 205 VIPIPS 140 Q205VIPIPSC 2
211VAPAES Dummy 211 VAPAES 150 Q211VAPAESW 1
201VIPIES Dummy 201 VIPIES 180 Q201VIPIESW 1
222VIPIPS Dummy 222 VIPIPS 140 Q222VIPIPSC 2
219VAPAES Dummy 219 VAPAES 150 Q219VAPAESW 1
208VIPIPS Dummy 208 VIPIPS 140 Q208VIPIPSC 2
214VIPAPS Dummy 214 VIPAPS 130 Q214VIPAPSW 1
231VAPAPS Dummy 231 VAPAPS 110 Q231VAPAPSW 1
210VIPAES Dummy 210 VIPAES 170 Q210VIPAESC 2
212VAPAES Dummy 212 VAPAES 150 Q212VAPAESC 2
229VAPIPS Dummy 229 VAPIPS 120 Q229VAPIPSC 2
204VIPAES Dummy 204 VIPAES 170 Q204VIPAESW 1
206VIPAES Dummy 206 VIPAES 170 Q206VIPAESW 1
216VAPIPS Dummy 216 VAPIPS 120 Q216VAPIPSC 2
221VIPIPS Dummy 221 VIPIPS 140 Q221VIPIPSC 2
203VAPIES Dummy 203 VAPIES 160 Q203VAPIESC 2
223VAPAES Dummy 223 VAPAES 150 Q223VAPAESW 1
228VIPIPS Dummy 228 VIPIPS 140 Q228VIPIPSC 2
215VAPIPS Dummy 215 VAPIPS 120 Q215VAPIPSC 2
236VIPAES Dummy 236 VIPAES 170 Q236VIPAESW 1
219VIPIPS Dummy 219 VIPIPS 140 Q219VIPIPSW 1
235VAPAES Dummy 235 VAPAES 150 Q235VAPAESW 1
205VAPAES Dummy 205 VAPAES 150 Q205VAPAESC 2
230VAPIPS Dummy 230 VAPIPS 120 Q230VAPIPSC 2
214VAPIPS Dummy 214 VAPIPS 120 Q214VAPIPSW 1
204VIPIES Dummy 204 VIPIES 180 Q204VIPIESC 2
232VAPAPS Dummy 232 VAPAPS 110 Q232VAPAPSC 2
226VAPIES Dummy 226 VAPIES 160 Q226VAPIESC 2
222VIPIES Dummy 222 VIPIES 180 Q222VIPIESW 1
203VIPIES Dummy 203 VIPIES 180 Q203VIPIESW 1
227VIPAPS Dummy 227 VIPAPS 130 Q227VIPAPSC 2
232VAPIPS Dummy 232 VAPIPS 120 Q232VAPIPSW 1
234VAPIPS Dummy 234 VAPIPS 120 Q234VAPIPSC 2
223VAPIES Dummy 223 VAPIES 160 Q223VAPIESW 1
236VIPAPS Dummy 236 VIPAPS 130 Q236VIPAPSW 1
233VAPIES Dummy 233 VAPIES 160 Q233VAPIESC 2
229VAPAES Dummy 229 VAPAES 150 Q229VAPAESC 2
208VAPAPS Dummy 208 VAPAPS 110 Q208VAPAPSC 2
209VIPIPS Dummy 209 VIPIPS 140 Q209VIPIPSW 1
207VIPIPS Dummy 207 VIPIPS 140 Q207VIPIPSC 2
202VAPIES Dummy 202 VAPIES 160 Q202VAPIESC 2
204VAPAPS Dummy 204 VAPAPS 110 Q204VAPAPSC 2
218VIPIPS Dummy 218 VIPIPS 140 Q218VIPIPSW 1
211VIPAPS Dummy 211 VIPAPS 130 Q211VIPAPSW 1
234VIPAES Dummy 234 VIPAES 170 Q234VIPAESC 2
236VAPAES Dummy 236 VAPAES 150 Q236VAPAESC 2
223VIPIPS Dummy 223 VIPIPS 140 Q223VIPIPSW 1
206VIPIPS Dummy 206 VIPIPS 140 Q206VIPIPSW 1
205VAPAPS Dummy 205 VAPAPS 110 Q205VAPAPSW 1
220VAPIES Dummy 220 VAPIES 160 Q220VAPIESC 2
206VAPAES Dummy 206 VAPAES 150 Q206VAPAESW 1
203VAPAPS Dummy 203 VAPAPS 110 Q203VAPAPSW 1
212VIPAPS Dummy 212 VIPAPS 130 Q212VIPAPSW 1
230VAPAPS Dummy 230 VAPAPS 110 Q230VAPAPSC 2
215VAPIES Dummy 215 VAPIES 160 Q215VAPIESW 1
209VAPAPS Dummy 209 VAPAPS 110 Q209VAPAPSW 1
232VIPAES Dummy 232 VIPAES 170 Q232VIPAESW 1
206VAPAPS Dummy 206 VAPAPS 110 Q206VAPAPSC 2
218VAPAES Dummy 218 VAPAES 150 Q218VAPAESW 1
219VAPIPS Dummy 219 VAPIPS 120 Q219VAPIPSC 2
214VIPAES Dummy 214 VIPAES 170 Q214VIPAESC 2
228VIPAES Dummy 228 VIPAES 170 Q228VIPAESW 1
201VIPAPS Dummy 201 VIPAPS 130 Q201VIPAPSC 2
218VAPIPS Dummy 218 VAPIPS 120 Q218VAPIPSW 1
233VAPIPS Dummy 233 VAPIPS 120 Q233VAPIPSC 2
