233VAPIES Dummy 233 VAPIES 160 Q233VAPIESC 2
213VIPIES Dummy 213 VIPIES 180 Q213VIPIESC 2
225VAPAPS Dummy 225 VAPAPS 110 Q225VAPAPSW 1
210VAPIPS Dummy 210 VAPIPS 120 Q210VAPIPSW 1
230VIPAPS Dummy 230 VIPAPS 130 Q230VIPAPSW 1
219VIPIES Dummy 219 VIPIES 180 Q219VIPIESC 2
215VIPIPS Dummy 215 VIPIPS 140 Q215VIPIPSC 2
216VIPIPS Dummy 216 VIPIPS 140 Q216VIPIPSW 1
222VAPAES Dummy 222 VAPAES 150 Q222VAPAESW 1
202VIPIPS Dummy 202 VIPIPS 140 Q202VIPIPSW 1
218VIPAES Dummy 218 VIPAES 170 Q218VIPAESC 2
214VAPIPS Dummy 214 VAPIPS 120 Q214VAPIPSW 1
230VAPIES Dummy 230 VAPIES 160 Q230VAPIESW 1
203VIPAPS Dummy 203 VIPAPS 130 Q203VIPAPSC 2
208VAPIPS Dummy 208 VAPIPS 120 Q208VAPIPSC 2
234VIPAES Dummy 234 VIPAES 170 Q234VIPAESC 2
229VAPAES Dummy 229 VAPAES 150 Q229VAPAESW 1
206VIPAPS Dummy 206 VIPAPS 130 Q206VIPAPSW 1
209VAPAES Dummy 209 VAPAES 150 Q209VAPAESC 2
235VIPIPS Dummy 235 VIPIPS 140 Q235VIPIPSC 2
211VIPIES Dummy 211 VIPIES 180 Q211VIPIESW 1
216VAPAES Dummy 216 VAPAES 150 Q216VAPAESC 2
203VAPAES Dummy 203 VAPAES 150 Q203VAPAESW 1
231VAPAPS Dummy 231 VAPAPS 110 Q231VAPAPSW 1
215VAPAES Dummy 215 VAPAES 150 Q215VAPAESW 1
234VIPIPS Dummy 234 VIPIPS 140 Q234VIPIPSC 2
224VIPAES Dummy 224 VIPAES 170 Q224VIPAESC 2
211VAPIPS Dummy 211 VAPIPS 120 Q211VAPIPSC 2
220VIPIPS Dummy 220 VIPIPS 140 Q220VIPIPSW 1
230VIPAES Dummy 230 VIPAES 170 Q230VIPAESC 2
208VIPAES Dummy 208 VIPAES 170 Q208VIPAESW 1
206VAPIPS Dummy 206 VAPIPS 120 Q206VAPIPSW 1
227VIPAPS Dummy 227 VIPAPS 130 Q227VIPAPSC 2
220VIPAPS Dummy 220 VIPAPS 130 Q220VIPAPSC 2
205VIPIES Dummy 205 VIPIES 180 Q205VIPIESC 2
223VAPAPS Dummy 223 VAPAPS 110 Q223VAPAPSW 1
209VIPIPS Dummy 209 VIPIPS 140 Q209VIPIPSC 2
213VAPIES Dummy 213 VAPIES 160 Q213VAPIESC 2
206VIPAES Dummy 206 VIPAES 170 Q206VIPAESC 2
227VAPAES Dummy 227 VAPAES 150 Q227VAPAESW 1
217VIPIPS Dummy 217 VIPIPS 140 Q217VIPIPSC 2
229VIPIES Dummy 229 VIPIES 180 Q229VIPIESC 2
236VIPAES Dummy 236 VIPAES 170 Q236VIPAESW 1
226VIPIES Dummy 226 VIPIES 180 Q226VIPIESW 1
202VAPAPS Dummy 202 VAPAPS 110 Q202VAPAPSC 2
221VAPAES Dummy 221 VAPAES 150 Q221VAPAESC 2
234VAPAES Dummy 234 VAPAES 150 Q234VAPAESW 1
232VAPAPS Dummy 232 VAPAPS 110 Q232VAPAPSC 2
218VIPIPS Dummy 218 VIPIPS 140 Q218VIPIPSC 2
221VAPIPS Dummy 221 VAPIPS 120 Q221VAPIPSC 2
228VIPAES Dummy 228 VIPAES 170 Q228VIPAESW 1
202VIPIES Dummy 202 VIPIES 180 Q202VIPIESW 1
218VIPAPS Dummy 218 VIPAPS 130 Q218VIPAPSW 1
201VAPIES Dummy 201 VAPIES 160 Q201VAPIESC 2
216VIPAES Dummy 216 VIPAES 170 Q216VIPAESW 1
218VAPIES Dummy 218 VAPIES 160 Q218VAPIESC 2
225VAPIPS Dummy 225 VAPIPS 120 Q225VAPIPSC 2
224VAPIES Dummy 224 VAPIES 160 Q224VAPIESW 1
222VAPIPS Dummy 222 VAPIPS 120 Q222VAPIPSC 2
229VIPAPS Dummy 229 VIPAPS 130 Q229VIPAPSC 2
201VIPIPS Dummy 201 VIPIPS 140 Q201VIPIPSC 2
217VIPIES Dummy 217 VIPIES 180 Q217VIPIESW 1
231VIPAPS Dummy 231 VIPAPS 130 Q231VIPAPSC 2
228VAPAPS Dummy 228 VAPAPS 110 Q228VAPAPSC 2
204VIPAES Dummy 204 VIPAES 170 Q204VIPAESW 1
213VIPIPS Dummy 213 VIPIPS 140 Q213VIPIPSW 1
205VAPIPS Dummy 205 VAPIPS 120 Q205VAPIPSW 1
203VAPIES Dummy 203 VAPIES 160 Q203VAPIESC 2
204VAPAES Dummy 204 VAPAES 150 Q204VAPAESC 2
223VAPIPS Dummy 223 VAPIPS 120 Q223VAPIPSW 1
214VIPIPS Dummy 214 VIPIPS 140 Q214VIPIPSW 1
231VAPIES Dummy 231 VAPIES 160 Q231VAPIESW 1
228VAPAES Dummy 228 VAPAES 150 Q228VAPAESC 2
220VIPIES Dummy 220 VIPIES 180 Q220VIPIESC 2
208VIPAPS Dummy 208 VIPAPS 130 Q208VIPAPSW 1
233VAPAES Dummy 233 VAPAES 150 Q233VAPAESC 2
219VAPIES Dummy 219 VAPIES 160 Q219VAPIESW 1
207VAPIES Dummy 207 VAPIES 160 Q207VAPIESW 1
229VAPAPS Dummy 229 VAPAPS 110 Q229VAPAPSW 1
205VIPAPS Dummy 205 VIPAPS 130 Q205VIPAPSC 2
207VIPAPS Dummy 207 VIPAPS 130 Q207VIPAPSW 1
222VIPAES Dummy 222 VIPAES 170 Q222VIPAESW 1
227VAPIES Dummy 227 VAPIES 160 Q227VAPIESC 2
226VIPAES Dummy 226 VIPAES 170 Q226VIPAESC 2
201VAPAPS Dummy 201 VAPAPS 110 Q201VAPAPSW 1
215VAPIES Dummy 215 VAPIES 160 Q215VAPIESW 1
236VAPAPS Dummy 236 VAPAPS 110 Q236VAPAPSC 2
212VIPIPS Dummy 212 VIPIPS 140 Q212VIPIPSW 1
214VIPAES Dummy 214 VIPAES 170 Q214VIPAESC 2
228VIPAPS Dummy 228 VIPAPS 130 Q228VIPAPSW 1
201VIPIES Dummy 201 VIPIES 180 Q201VIPIESW 1
206VAPIES Dummy 206 VAPIES 160 Q206VAPIESC 2
214VIPIES Dummy 214 VIPIES 180 Q214VIPIESW 1
210VIPIPS Dummy 210 VIPIPS 140 Q210VIPIPSC 2
215VIPAPS Dummy 215 VIPAPS 130 Q215VIPAPSC 2
211VIPIPS Dummy 211 VIPIPS 140 Q211VIPIPSW 1
205VAPAES Dummy 205 VAPAES 150 Q205VAPAESW 1
221VAPAPS Dummy 221 VAPAPS 110 Q221VAPAPSW 1
234VAPAPS Dummy 234 VAPAPS 110 Q234VAPAPSC 2
219VIPAPS Dummy 219 VIPAPS 130 Q219VIPAPSC 2
221VAPIES Dummy 221 VAPIES 160 Q221VAPIESW 1
217VAPAES Dummy 217 VAPAES 150 Q217VAPAESW 1
230VAPAPS Dummy 230 VAPAPS 110 Q230VAPAPSC 2
212VAPIES Dummy 212 VAPIES 160 Q212VAPIESC 2
219VIPIPS Dummy 219 VIPIPS 140 Q219VIPIPSW 1
203VAPIPS Dummy 203 VAPIPS 120 Q203VAPIPSW 1
209VAPIPS Dummy 209 VAPIPS 120 Q209VAPIPSW 1
210VIPAES Dummy 210 VIPAES 170 Q210VIPAESC 2
225VIPIES Dummy 225 VIPIES 180 Q225VIPIESW 1
233VIPIPS Dummy 233 VIPIPS 140 Q233VIPIPSC 2
224VAPAPS Dummy 224 VAPAPS 110 Q224VAPAPSC 2
225VAPIES Dummy 225 VAPIES 160 Q225VAPIESC 2
233VAPAPS Dummy 233 VAPAPS 110 Q233VAPAPSW 1
227VAPAPS Dummy 227 VAPAPS 110 Q227VAPAPSW 1
235VIPIES Dummy 235 VIPIES 180 Q235VIPIESW 1
226VAPAPS Dummy 226 VAPAPS 110 Q226VAPAPSC 2
231VIPIES Dummy 231 VIPIES 180 Q231VIPIESC 2
207VIPIES Dummy 207 VIPIES 180 Q207VIPIESC 2
209VAPIES Dummy 209 VAPIES 160 Q209VAPIESW 1
235VAPAPS Dummy 235 VAPAPS 110 Q235VAPAPSW 1
204VAPIPS Dummy 204 VAPIPS 120 Q204VAPIPSC 2
212VIPAES Dummy 212 VIPAES 170 Q212VIPAESW 1
236VAPIES Dummy 236 VAPIES 160 Q236VAPIESW 1
223VIPIES Dummy 223 VIPIES 180 Q223VIPIESW 1
222VAPAPS Dummy 222 VAPAPS 110 Q222VAPAPSC 2
202VIPAES Dummy 202 VIPAES 170 Q202VIPAESC 2
235VAPAES Dummy 235 VAPAES 150 Q235VAPAESC 2
236VIPIPS Dummy 236 VIPIPS 140 Q236VIPIPSW 1
210VAPAES Dummy 210 VAPAES 150 Q210VAPAESW 1
212VAPIPS Dummy 212 VAPIPS 120 Q212VAPIPSC 2
213VAPIPS Dummy 213 VAPIPS 120 Q213VAPIPSW 1
232VIPIES Dummy 232 VIPIES 180 Q232VIPIESC 2
220VIPAES Dummy 220 VIPAES 170 Q220VIPAESW 1
207VAPIPS Dummy 207 VAPIPS 120 Q207VAPIPSC 2
208VIPIES Dummy 208 VIPIES 180 Q208VIPIESC 2
232VIPAES Dummy 232 VIPAES 170 Q232VIPAESW 1
217VIPAPS Dummy 217 VIPAPS 130 Q217VIPAPSC 2
216VIPAPS Dummy 216 VIPAPS 130 Q216VIPAPSW 1
211VAPAES Dummy 211 VAPAES 150 Q211VAPAESC 2
226VAPIPS Dummy 226 VAPIPS 120 Q226VAPIPSC 2
204VIPAPS Dummy 204 VIPAPS 130 Q204VIPAPSW 1
223VAPAES Dummy 223 VAPAES 150 Q223VAPAESC 2
232VIPAPS Dummy 232 VIPAPS 130 Q232VIPAPSW 1
224VAPIPS Dummy 224 VAPIPS 120 Q224VAPIPSW 1
