204VIPAES Dummy 204 VIPAES 170 Q204VIPAESW 1
232VIPIPS Dummy 232 VIPIPS 140 Q232VIPIPSC 2
230VIPIES Dummy 230 VIPIES 180 Q230VIPIESW 1
219VIPAPS Dummy 219 VIPAPS 130 Q219VIPAPSW 1
228VAPIPS Dummy 228 VAPIPS 120 Q228VAPIPSC 2
224VIPAES Dummy 224 VIPAES 170 Q224VIPAESW 1
206VAPAPS Dummy 206 VAPAPS 110 Q206VAPAPSW 1
218VIPIPS Dummy 218 VIPIPS 140 Q218VIPIPSC 2
226VIPAES Dummy 226 VIPAES 170 Q226VIPAESW 1
225VAPAES Dummy 225 VAPAES 150 Q225VAPAESW 1
218VIPIES Dummy 218 VIPIES 180 Q218VIPIESW 1
229VAPIPS Dummy 229 VAPIPS 120 Q229VAPIPSC 2
207VAPIES Dummy 207 VAPIES 160 Q207VAPIESW 1
215VIPIPS Dummy 215 VIPIPS 140 Q215VIPIPSW 1
220VIPAPS Dummy 220 VIPAPS 130 Q220VIPAPSC 2
226VAPIPS Dummy 226 VAPIPS 120 Q226VAPIPSC 2
212VIPIES Dummy 212 VIPIES 180 Q212VIPIESW 1
205VIPIES Dummy 205 VIPIES 180 Q205VIPIESC 2
231VAPIES Dummy 231 VAPIES 160 Q231VAPIESW 1
212VIPAPS Dummy 212 VIPAPS 130 Q212VIPAPSC 2
225VAPIPS Dummy 225 VAPIPS 120 Q225VAPIPSW 1
224VIPIES Dummy 224 VIPIES 180 Q224VIPIESW 1
234VAPIES Dummy 234 VAPIES 160 Q234VAPIESC 2
226VAPAES Dummy 226 VAPAES 150 Q226VAPAESC 2
214VAPAPS Dummy 214 VAPAPS 110 Q214VAPAPSW 1
230VAPIPS Dummy 230 VAPIPS 120 Q230VAPIPSC 2
226VIPIPS Dummy 226 VIPIPS 140 Q226VIPIPSC 2
214VIPAES Dummy 214 VIPAES 170 Q214VIPAESC 2
232VIPAPS Dummy 232 VIPAPS 130 Q232VIPAPSW 1
206VIPIES Dummy 206 VIPIES 180 Q206VIPIESW 1
221VAPAES Dummy 221 VAPAES 150 Q221VAPAESC 2
202VAPIPS Dummy 202 VAPIPS 120 Q202VAPIPSC 2
210VIPAES Dummy 210 VIPAES 170 Q210VIPAESW 1
215VIPIES Dummy 215 VIPIES 180 Q215VIPIESC 2
203VAPIPS Dummy 203 VAPIPS 120 Q203VAPIPSC 2
202VAPAES Dummy 202 VAPAES 150 Q202VAPAESC 2
223VAPIPS Dummy 223 VAPIPS 120 Q223VAPIPSW 1
236VIPIPS Dummy 236 VIPIPS 140 Q236VIPIPSW 1
215VAPAES Dummy 215 VAPAES 150 Q215VAPAESC 2
205VAPIES Dummy 205 VAPIES 160 Q205VAPIESW 1
220VAPIPS Dummy 220 VAPIPS 120 Q220VAPIPSW 1
202VIPAES Dummy 202 VIPAES 170 Q202VIPAESW 1
217VAPAPS Dummy 217 VAPAPS 110 Q217VAPAPSC 2
211VIPAPS Dummy 211 VIPAPS 130 Q211VIPAPSC 2
216VIPIPS Dummy 216 VIPIPS 140 Q216VIPIPSC 2
208VAPAES Dummy 208 VAPAES 150 Q208VAPAESW 1
233VAPAES Dummy 233 VAPAES 150 Q233VAPAESW 1
204VAPAPS Dummy 204 VAPAPS 110 Q204VAPAPSC 2
227VAPIPS Dummy 227 VAPIPS 120 Q227VAPIPSC 2
223VIPIES Dummy 223 VIPIES 180 Q223VIPIESC 2
233VIPIPS Dummy 233 VIPIPS 140 Q233VIPIPSW 1
213VAPAES Dummy 213 VAPAES 150 Q213VAPAESC 2
209VIPIES Dummy 209 VIPIES 180 Q209VIPIESC 2
233VIPAPS Dummy 233 VIPAPS 130 Q233VIPAPSC 2
207VIPAPS Dummy 207 VIPAPS 130 Q207VIPAPSW 1
220VAPAES Dummy 220 VAPAES 150 Q220VAPAESW 1
221VIPIES Dummy 221 VIPIES 180 Q221VIPIESW 1
235VIPIPS Dummy 235 VIPIPS 140 Q235VIPIPSC 2
209VIPAPS Dummy 209 VIPAPS 130 Q209VIPAPSW 1
219VAPAES Dummy 219 VAPAES 150 Q219VAPAESW 1
212VAPAPS Dummy 212 VAPAPS 110 Q212VAPAPSC 2
205VAPAPS Dummy 205 VAPAPS 110 Q205VAPAPSW 1
213VAPIES Dummy 213 VAPIES 160 Q213VAPIESW 1
206VIPAES Dummy 206 VIPAES 170 Q206VIPAESC 2
215VAPAPS Dummy 215 VAPAPS 110 Q215VAPAPSC 2
222VIPAES Dummy 222 VIPAES 170 Q222VIPAESW 1
216VAPIES Dummy 216 VAPIES 160 Q216VAPIESW 1
227VAPAES Dummy 227 VAPAES 150 Q227VAPAESC 2
201VAPAPS Dummy 201 VAPAPS 110 Q201VAPAPSC 2
217VIPIPS Dummy 217 VIPIPS 140 Q217VIPIPSC 2
229VIPIES Dummy 229 VIPIES 180 Q229VIPIESW 1
222VAPIES Dummy 222 VAPIES 160 Q222VAPIESW 1
221VAPIPS Dummy 221 VAPIPS 120 Q221VAPIPSW 1
228VIPAES Dummy 228 VIPAES 170 Q228VIPAESC 2
210VAPAPS Dummy 210 VAPAPS 110 Q210VAPAPSC 2
236VIPAPS Dummy 236 VIPAPS 130 Q236VIPAPSW 1
213VAPAPS Dummy 213 VAPAPS 110 Q213VAPAPSW 1
204VAPIES Dummy 204 VAPIES 160 Q204VAPIESC 2
210VAPIES Dummy 210 VAPIES 160 Q210VAPIESC 2
229VAPIES Dummy 229 VAPIES 160 Q229VAPIESC 2
214VIPIPS Dummy 214 VIPIPS 140 Q214VIPIPSW 1
216VIPAES Dummy 216 VIPAES 170 Q216VIPAESC 2
230VIPIPS Dummy 230 VIPIPS 140 Q230VIPIPSC 2
222VIPAPS Dummy 222 VIPAPS 130 Q222VIPAPSC 2
206VAPIPS Dummy 206 VAPIPS 120 Q206VAPIPSW 1
232VIPAES Dummy 232 VIPAES 170 Q232VIPAESW 1
231VIPIPS Dummy 231 VIPIPS 140 Q231VIPIPSC 2
224VAPIPS Dummy 224 VAPIPS 120 Q224VAPIPSW 1
235VIPIES Dummy 235 VIPIES 180 Q235VIPIESC 2
202VAPAPS Dummy 202 VAPAPS 110 Q202VAPAPSW 1
218VAPAPS Dummy 218 VAPAPS 110 Q218VAPAPSW 1
201VAPIPS Dummy 201 VAPIPS 120 Q201VAPIPSW 1
230VIPAES Dummy 230 VIPAES 170 Q230VIPAESC 2
228VIPIPS Dummy 228 VIPIPS 140 Q228VIPIPSW 1
231VIPAPS Dummy 231 VIPAPS 130 Q231VIPAPSC 2
208VAPAPS Dummy 208 VAPAPS 110 Q208VAPAPSC 2
211VAPIES Dummy 211 VAPIES 160 Q211VAPIESC 2
213VIPIPS Dummy 213 VIPIPS 140 Q213VIPIPSW 1
203VAPAES Dummy 203 VAPAES 150 Q203VAPAESW 1
227VIPIES Dummy 227 VIPIES 180 Q227VIPIESC 2
211VAPAPS Dummy 211 VAPAPS 110 Q211VAPAPSW 1
219VAPIES Dummy 219 VAPIES 160 Q219VAPIESC 2
235VAPIES Dummy 235 VAPIES 160 Q235VAPIESC 2
234VIPAPS Dummy 234 VIPAPS 130 Q234VIPAPSC 2
221VIPAPS Dummy 221 VIPAPS 130 Q221VIPAPSW 1
201VAPAES Dummy 201 VAPAES 150 Q201VAPAESW 1
214VAPAES Dummy 214 VAPAES 150 Q214VAPAESW 1
225VIPIPS Dummy 225 VIPIPS 140 Q225VIPIPSC 2
219VAPIPS Dummy 219 VAPIPS 120 Q219VAPIPSC 2
234VIPIPS Dummy 234 VIPIPS 140 Q234VIPIPSW 1
217VIPIES Dummy 217 VIPIES 180 Q217VIPIESW 1
232VAPAES Dummy 232 VAPAES 150 Q232VAPAESC 2
208VIPAES Dummy 208 VIPAES 170 Q208VIPAESC 2
204VAPIPS Dummy 204 VAPIPS 120 Q204VAPIPSC 2
235VIPAPS Dummy 235 VIPAPS 130 Q235VIPAPSW 1
207VAPAPS Dummy 207 VAPAPS 110 Q207VAPAPSW 1
212VIPAES Dummy 212 VIPAES 170 Q212VIPAESW 1
220VIPAES Dummy 220 VIPAES 170 Q220VIPAESC 2
223VAPIES Dummy 223 VAPIES 160 Q223VAPIESC 2
203VAPAPS Dummy 203 VAPAPS 110 Q203VAPAPSW 1
217VAPIES Dummy 217 VAPIES 160 Q217VAPIESW 1
225VAPIES Dummy 225 VAPIES 160 Q225VAPIESW 1
224VIPAPS Dummy 224 VIPAPS 130 Q224VIPAPSC 2
228VAPIES Dummy 228 VAPIES 160 Q228VAPIESW 1
234VIPAES Dummy 234 VIPAES 170 Q234VIPAESW 1
207VAPAES Dummy 207 VAPAES 150 Q207VAPAESC 2
223VIPAPS Dummy 223 VIPAPS 130 Q223VIPAPSW 1
236VIPAES Dummy 236 VIPAES 170 Q236VIPAESC 2
222VAPIPS Dummy 222 VAPIPS 120 Q222VAPIPSW 1
218VIPAES Dummy 218 VIPAES 170 Q218VIPAESC 2
209VAPAPS Dummy 209 VAPAPS 110 Q209VAPAPSC 2
233VIPIES Dummy 233 VIPIES 180 Q233VIPIESC 2
231VAPAES Dummy 231 VAPAES 150 Q231VAPAESW 1
211VIPIES Dummy 211 VIPIES 180 Q211VIPIESC 2
229VIPIPS Dummy 229 VIPIPS 140 Q229VIPIPSW 1
236VIPIES Dummy 236 VIPIES 180 Q236VIPIESW 1
205VAPIPS Dummy 205 VAPIPS 120 Q205VAPIPSW 1
209VAPAES Dummy 209 VAPAES 150 Q209VAPAESC 2
210VIPAPS Dummy 210 VIPAPS 130 Q210VIPAPSW 1
201VAPIES Dummy 201 VAPIES 160 Q201VAPIESC 2
203VIPIES Dummy 203 VIPIES 180 Q203VIPIESC 2
216VAPAPS Dummy 216 VAPAPS 110 Q216VAPAPSC 2
227VIPIPS Dummy 227 VIPIPS 140 Q227VIPIPSW 1
208VIPAPS Dummy 208 VIPAPS 130 Q208VIPAPSC 2
