222VIPIPS Dummy 222 VIPIPS 140 Q222VIPIPSW 1
219VIPIPS Dummy 219 VIPIPS 140 Q219VIPIPSC 2
232VIPIES Dummy 232 VIPIES 180 Q232VIPIESC 2
205VAPAPS Dummy 205 VAPAPS 110 Q205VAPAPSW 1
223VIPAPS Dummy 223 VIPAPS 130 Q223VIPAPSC 2
210VAPAES Dummy 210 VAPAES 150 Q210VAPAESW 1
220VIPAES Dummy 220 VIPAES 170 Q220VIPAESW 1
215VAPIPS Dummy 215 VAPIPS 120 Q215VAPIPSC 2
230VAPIES Dummy 230 VAPIES 160 Q230VAPIESW 1
202VAPAPS Dummy 202 VAPAPS 110 Q202VAPAPSC 2
214VIPAES Dummy 214 VIPAES 170 Q214VIPAESC 2
216VAPAES Dummy 216 VAPAES 150 Q216VAPAESC 2
206VIPAES Dummy 206 VIPAES 170 Q206VIPAESW 1
230VAPIPS Dummy 230 VAPIPS 120 Q230VAPIPSW 1
229VAPIPS Dummy 229 VAPIPS 120 Q229VAPIPSW 1
209VIPAPS Dummy 209 VIPAPS 130 Q209VIPAPSC 2
222VAPAES Dummy 222 VAPAES 150 Q222VAPAESW 1
232VAPIPS Dummy 232 VAPIPS 120 Q232VAPIPSC 2
204VIPIPS Dummy 204 VIPIPS 140 Q204VIPIPSW 1
219VAPIES Dummy 219 VAPIES 160 Q219VAPIESC 2
213VIPIES Dummy 213 VIPIES 180 Q213VIPIESW 1
228VIPAES Dummy 228 VIPAES 170 Q228VIPAESW 1
211VIPAPS Dummy 211 VIPAPS 130 Q211VIPAPSW 1
205VIPIPS Dummy 205 VIPIPS 140 Q205VIPIPSC 2
233VAPAES Dummy 233 VAPAES 150 Q233VAPAESC 2
213VAPIPS Dummy 213 VAPIPS 120 Q213VAPIPSC 2
226VIPIES Dummy 226 VIPIES 180 Q226VIPIESW 1
212VIPAPS Dummy 212 VIPAPS 130 Q212VIPAPSW 1
216VAPIPS Dummy 216 VAPIPS 120 Q216VAPIPSW 1
218VIPAES Dummy 218 VIPAES 170 Q218VIPAESC 2
203VAPAES Dummy 203 VAPAES 150 Q203VAPAESW 1
209VAPIPS Dummy 209 VAPIPS 120 Q209VAPIPSW 1
223VIPIES Dummy 223 VIPIES 180 Q223VIPIESW 1
213VIPAPS Dummy 213 VIPAPS 130 Q213VIPAPSC 2
228VAPAPS Dummy 228 VAPAPS 110 Q228VAPAPSC 2
229VAPAPS Dummy 229 VAPAPS 110 Q229VAPAPSW 1
209VAPIES Dummy 209 VAPIES 160 Q209VAPIESC 2
217VAPIPS Dummy 217 VAPIPS 120 Q217VAPIPSW 1
208VIPIES Dummy 208 VIPIES 180 Q208VIPIESC 2
227VAPIES Dummy 227 VAPIES 160 Q227VAPIESC 2
234VIPAES Dummy 234 VIPAES 170 Q234VIPAESC 2
203VAPAPS Dummy 203 VAPAPS 110 Q203VAPAPSW 1
231VAPIES Dummy 231 VAPIES 160 Q231VAPIESW 1
216VIPIPS Dummy 216 VIPIPS 140 Q216VIPIPSW 1
208VAPAPS Dummy 208 VAPAPS 110 Q208VAPAPSC 2
221VAPIES Dummy 221 VAPIES 160 Q221VAPIESW 1
230VIPAES Dummy 230 VIPAES 170 Q230VIPAESC 2
204VAPAPS Dummy 204 VAPAPS 110 Q204VAPAPSC 2
202VIPIES Dummy 202 VIPIES 180 Q202VIPIESW 1
231VAPIPS Dummy 231 VAPIPS 120 Q231VAPIPSC 2
203VIPIPS Dummy 203 VIPIPS 140 Q203VIPIPSC 2
218VIPIPS Dummy 218 VIPIPS 140 Q218VIPIPSW 1
210VIPAES Dummy 210 VIPAES 170 Q210VIPAESC 2
215VAPIES Dummy 215 VAPIES 160 Q215VAPIESC 2
233VIPAPS Dummy 233 VIPAPS 130 Q233VIPAPSC 2
207VAPIES Dummy 207 VAPIES 160 Q207VAPIESW 1
204VAPAES Dummy 204 VAPAES 150 Q204VAPAESC 2
232VAPAPS Dummy 232 VAPAPS 110 Q232VAPAPSC 2
226VIPAES Dummy 226 VIPAES 170 Q226VIPAESC 2
236VIPAES Dummy 236 VIPAES 170 Q236VIPAESW 1
233VAPIES Dummy 233 VAPIES 160 Q233VAPIESC 2
210VAPIPS Dummy 210 VAPIPS 120 Q210VAPIPSC 2
201VIPIES Dummy 201 VIPIES 180 Q201VIPIESW 1
211VIPIES Dummy 211 VIPIES 180 Q211VIPIESW 1
210VIPAPS Dummy 210 VIPAPS 130 Q210VIPAPSW 1
209VAPAES Dummy 209 VAPAES 150 Q209VAPAESC 2
226VIPAPS Dummy 226 VIPAPS 130 Q226VIPAPSW 1
229VAPAES Dummy 229 VAPAES 150 Q229VAPAESW 1
219VIPIES Dummy 219 VIPIES 180 Q219VIPIESC 2
228VAPAES Dummy 228 VAPAES 150 Q228VAPAESC 2
215VIPIPS Dummy 215 VIPIPS 140 Q215VIPIPSW 1
221VIPIPS Dummy 221 VIPIPS 140 Q221VIPIPSW 1
234VAPAES Dummy 234 VAPAES 150 Q234VAPAESW 1
231VIPIES Dummy 231 VIPIES 180 Q231VIPIESC 2
236VAPAPS Dummy 236 VAPAPS 110 Q236VAPAPSC 2
202VIPAPS Dummy 202 VIPAPS 130 Q202VIPAPSW 1
223VIPIPS Dummy 223 VIPIPS 140 Q223VIPIPSC 2
218VAPIES Dummy 218 VAPIES 160 Q218VAPIESW 1
214VIPIES Dummy 214 VIPIES 180 Q214VIPIESW 1
219VAPIPS Dummy 219 VAPIPS 120 Q219VAPIPSW 1
235VIPAPS Dummy 235 VIPAPS 130 Q235VIPAPSC 2
222VIPAES Dummy 222 VIPAES 170 Q222VIPAESC 2
220VIPIES Dummy 220 VIPIES 180 Q220VIPIESC 2
207VAPAPS Dummy 207 VAPAPS 110 Q207VAPAPSW 1
212VAPIPS Dummy 212 VAPIPS 120 Q212VAPIPSW 1
213VAPIES Dummy 213 VAPIES 160 Q213VAPIESW 1
220VIPIPS Dummy 220 VIPIPS 140 Q220VIPIPSC 2
225VIPAPS Dummy 225 VIPAPS 130 Q225VIPAPSC 2
236VIPAPS Dummy 236 VIPAPS 130 Q236VIPAPSW 1
224VIPAES Dummy 224 VIPAES 170 Q224VIPAESC 2
225VAPIES Dummy 225 VAPIES 160 Q225VAPIESC 2
229VIPIES Dummy 229 VIPIES 180 Q229VIPIESC 2
220VAPIPS Dummy 220 VAPIPS 120 Q220VAPIPSW 1
227VAPAPS Dummy 227 VAPAPS 110 Q227VAPAPSW 1
225VIPIPS Dummy 225 VIPIPS 140 Q225VIPIPSC 2
223VAPAES Dummy 223 VAPAES 150 Q223VAPAESC 2
217VAPAES Dummy 217 VAPAES 150 Q217VAPAESW 1
203VAPIES Dummy 203 VAPIES 160 Q203VAPIESC 2
231VAPAPS Dummy 231 VAPAPS 110 Q231VAPAPSW 1
216VIPAES Dummy 216 VIPAES 170 Q216VIPAESW 1
224VAPIES Dummy 224 VAPIES 160 Q224VAPIESW 1
227VAPIPS Dummy 227 VAPIPS 120 Q227VAPIPSC 2
225VIPIES Dummy 225 VIPIES 180 Q225VIPIESW 1
235VIPIES Dummy 235 VIPIES 180 Q235VIPIESW 1
221VIPAPS Dummy 221 VIPAPS 130 Q221VIPAPSC 2
212VIPAES Dummy 212 VIPAES 170 Q212VIPAESW 1
218VAPIPS Dummy 218 VAPIPS 120 Q218VAPIPSC 2
211VAPIPS Dummy 211 VAPIPS 120 Q211VAPIPSW 1
214VIPAPS Dummy 214 VIPAPS 130 Q214VIPAPSW 1
205VAPAES Dummy 205 VAPAES 150 Q205VAPAESW 1
217VIPIES Dummy 217 VIPIES 180 Q217VIPIESC 2
215VAPAES Dummy 215 VAPAES 150 Q215VAPAESW 1
222VIPAPS Dummy 222 VIPAPS 130 Q222VIPAPSW 1
235VAPAES Dummy 235 VAPAES 150 Q235VAPAESC 2
206VIPIPS Dummy 206 VIPIPS 140 Q206VIPIPSC 2
201VIPAPS Dummy 201 VIPAPS 130 Q201VIPAPSC 2
208VIPIPS Dummy 208 VIPIPS 140 Q208VIPIPSW 1
202VIPAES Dummy 202 VIPAES 170 Q202VIPAESC 2
206VAPAPS Dummy 206 VAPAPS 110 Q206VAPAPSC 2
211VAPAES Dummy 211 VAPAES 150 Q211VAPAESC 2
235VAPAPS Dummy 235 VAPAPS 110 Q235VAPAPSW 1
205VIPIES Dummy 205 VIPIES 180 Q205VIPIESC 2
226VIPIPS Dummy 226 VIPIPS 140 Q226VIPIPSW 1
224VIPAPS Dummy 224 VIPAPS 130 Q224VIPAPSC 2
234VAPAPS Dummy 234 VAPAPS 110 Q234VAPAPSC 2
206VAPIES Dummy 206 VAPIES 160 Q206VAPIESW 1
233VAPAPS Dummy 233 VAPAPS 110 Q233VAPAPSW 1
207VIPIES Dummy 207 VIPIES 180 Q207VIPIESC 2
208VIPAES Dummy 208 VIPAES 170 Q208VIPAESW 1
230VAPAPS Dummy 230 VAPAPS 110 Q230VAPAPSC 2
234VIPAPS Dummy 234 VIPAPS 130 Q234VIPAPSW 1
214VAPIPS Dummy 214 VAPIPS 120 Q214VAPIPSC 2
212VAPIES Dummy 212 VAPIES 160 Q212VAPIESC 2
207VIPIPS Dummy 207 VIPIPS 140 Q207VIPIPSW 1
232VIPAES Dummy 232 VIPAES 170 Q232VIPAESW 1
204VIPAES Dummy 204 VIPAES 170 Q204VIPAESW 1
228VAPIPS Dummy 228 VAPIPS 120 Q228VAPIPSC 2
224VIPIPS Dummy 224 VIPIPS 140 Q224VIPIPSC 2
201VAPAPS Dummy 201 VAPAPS 110 Q201VAPAPSW 1
227VAPAES Dummy 227 VAPAES 150 Q227VAPAESW 1
221VAPAES Dummy 221 VAPAES 150 Q221VAPAESC 2
217VIPIPS Dummy 217 VIPIPS 140 Q217VIPIPSC 2
236VAPIES Dummy 236 VAPIES 160 Q236VAPIESW 1
201VAPIES Dummy 201 VAPIES 160 Q201VAPIESC 2
